tb/dump.vcd
$date
   Mon Aug 19 21:46:42 2024
$end

$version
  2023.2
  $dumpfile ("dump.vcd") 
$end

$timescale
  1ps
$end

$scope module top $end
$var reg 1 ! clk $end
$scope module intf $end
$var wire 1 " clk $end
$var reg 1 # i_rst_n $end
$var reg 24 $ i_A [23:0] $end
$var reg 24 % i_B [23:0] $end
$var reg 144 & o_C [143:0] $end
$var reg 1 ' o_C_valid $end
$upscope $end
$scope module dut $end
$var wire 1 ( i_clk $end
$var wire 1 ) i_rst_n $end
$var wire 24 * i_A [23:0] $end
$var wire 24 + i_B [23:0] $end
$var reg 144 , o_C [143:0] $end
$var reg 1 - o_C_valid $end
$var reg 4 . transaction_cnt [3:0] $end
$var reg 8 / A11 [7:0] $end
$var reg 8 0 A21 [7:0] $end
$var reg 8 1 A31 [7:0] $end
$var reg 8 2 B11 [7:0] $end
$var reg 8 3 B12 [7:0] $end
$var reg 8 4 B13 [7:0] $end
$var reg 8 5 a11_12 [7:0] $end
$var reg 8 6 a12_13 [7:0] $end
$var reg 8 7 a21_22 [7:0] $end
$var reg 8 8 a22_23 [7:0] $end
$var reg 8 9 a31_32 [7:0] $end
$var reg 8 : a32_33 [7:0] $end
$var reg 8 ; b11_21 [7:0] $end
$var reg 8 < b21_31 [7:0] $end
$var reg 8 = b12_22 [7:0] $end
$var reg 8 > b22_32 [7:0] $end
$var reg 8 ? b13_23 [7:0] $end
$var reg 8 @ b23_33 [7:0] $end
$var reg 8 A a21_buffer [7:0] $end
$var reg 8 B a31_buffer1 [7:0] $end
$var reg 8 C a31_buffer2 [7:0] $end
$var reg 8 D b12_buffer [7:0] $end
$var reg 8 E b13_buffer1 [7:0] $end
$var reg 8 F b13_buffer2 [7:0] $end
$scope module mac11 $end
$var wire 1 ( i_clk $end
$var wire 1 ) i_rst_n $end
$var wire 8 G i_a [7:0] $end
$var wire 8 H i_b [7:0] $end
$var reg 8 5 o_x [7:0] $end
$var reg 8 ; o_y [7:0] $end
$var reg 16 I o_out [15:0] $end
$var reg 4 . o_transaction_cnt [3:0] $end
$var reg 8 J x_d [7:0] $end
$var reg 8 K y_d [7:0] $end
$var reg 16 L out_d [15:0] $end
$upscope $end
$scope module mac12 $end
$var wire 1 ( i_clk $end
$var wire 1 ) i_rst_n $end
$var wire 8 M i_a [7:0] $end
$var wire 8 N i_b [7:0] $end
$var reg 8 6 o_x [7:0] $end
$var reg 8 = o_y [7:0] $end
$var reg 16 O o_out [31:16] $end
$var reg 4 P o_transaction_cnt [3:0] $end
$var reg 8 Q x_d [7:0] $end
$var reg 8 R y_d [7:0] $end
$var reg 16 S out_d [15:0] $end
$upscope $end
$scope module mac13 $end
$var wire 1 ( i_clk $end
$var wire 1 ) i_rst_n $end
$var wire 8 T i_a [7:0] $end
$var wire 8 U i_b [7:0] $end
$var reg 8 V o_x [7:0] $end
$var reg 8 ? o_y [7:0] $end
$var reg 16 W o_out [47:32] $end
$var reg 4 X o_transaction_cnt [3:0] $end
$var reg 8 Y x_d [7:0] $end
$var reg 8 Z y_d [7:0] $end
$var reg 16 [ out_d [15:0] $end
$upscope $end
$scope module mac21 $end
$var wire 1 ( i_clk $end
$var wire 1 ) i_rst_n $end
$var wire 8 \ i_a [7:0] $end
$var wire 8 ] i_b [7:0] $end
$var reg 8 7 o_x [7:0] $end
$var reg 8 < o_y [7:0] $end
$var reg 16 ^ o_out [63:48] $end
$var reg 4 _ o_transaction_cnt [3:0] $end
$var reg 8 ` x_d [7:0] $end
$var reg 8 a y_d [7:0] $end
$var reg 16 b out_d [15:0] $end
$upscope $end
$scope module mac22 $end
$var wire 1 ( i_clk $end
$var wire 1 ) i_rst_n $end
$var wire 8 c i_a [7:0] $end
$var wire 8 d i_b [7:0] $end
$var reg 8 8 o_x [7:0] $end
$var reg 8 > o_y [7:0] $end
$var reg 16 e o_out [79:64] $end
$var reg 4 f o_transaction_cnt [3:0] $end
$var reg 8 g x_d [7:0] $end
$var reg 8 h y_d [7:0] $end
$var reg 16 i out_d [15:0] $end
$upscope $end
$scope module mac23 $end
$var wire 1 ( i_clk $end
$var wire 1 ) i_rst_n $end
$var wire 8 j i_a [7:0] $end
$var wire 8 k i_b [7:0] $end
$var reg 8 l o_x [7:0] $end
$var reg 8 @ o_y [7:0] $end
$var reg 16 m o_out [95:80] $end
$var reg 4 n o_transaction_cnt [3:0] $end
$var reg 8 o x_d [7:0] $end
$var reg 8 p y_d [7:0] $end
$var reg 16 q out_d [15:0] $end
$upscope $end
$scope module mac31 $end
$var wire 1 ( i_clk $end
$var wire 1 ) i_rst_n $end
$var wire 8 r i_a [7:0] $end
$var wire 8 s i_b [7:0] $end
$var reg 8 9 o_x [7:0] $end
$var reg 8 t o_y [7:0] $end
$var reg 16 u o_out [111:96] $end
$var reg 4 v o_transaction_cnt [3:0] $end
$var reg 8 w x_d [7:0] $end
$var reg 8 x y_d [7:0] $end
$var reg 16 y out_d [15:0] $end
$upscope $end
$scope module mac32 $end
$var wire 1 ( i_clk $end
$var wire 1 ) i_rst_n $end
$var wire 8 z i_a [7:0] $end
$var wire 8 { i_b [7:0] $end
$var reg 8 : o_x [7:0] $end
$var reg 8 | o_y [7:0] $end
$var reg 16 } o_out [127:112] $end
$var reg 4 ~ o_transaction_cnt [3:0] $end
$var reg 8 !! x_d [7:0] $end
$var reg 8 "! y_d [7:0] $end
$var reg 16 #! out_d [15:0] $end
$upscope $end
$scope module mac33 $end
$var wire 1 ( i_clk $end
$var wire 1 ) i_rst_n $end
$var wire 8 $! i_a [7:0] $end
$var wire 8 %! i_b [7:0] $end
$var reg 8 &! o_x [7:0] $end
$var reg 8 '! o_y [7:0] $end
$var reg 16 (! o_out [143:128] $end
$var reg 4 )! o_transaction_cnt [3:0] $end
$var reg 8 *! x_d [7:0] $end
$var reg 8 +! y_d [7:0] $end
$var reg 16 ,! out_d [15:0] $end
$upscope $end
$upscope $end
$upscope $end
$enddefinitions $end

#0
$dumpvars
0!
bx !!
0"
bx "!
x#
bx #!
bx $
bx $!
bx %
bx %!
bx &
bx &!
x'
bx '!
0(
bx (!
x)
bx )!
bx *
bx *!
bx +
bx +!
bx ,
bx ,!
x-
bx .
bx /
bx 0
bx 1
bx 2
bx 3
bx 4
bx 5
bx 6
bx 7
bx 8
bx 9
bx :
bx ;
bx <
bx =
bx >
bx ?
bx @
bx A
bx B
bx C
bx D
bx E
bx F
bx G
bx H
bx I
bx J
bx K
bx L
bx M
bx N
bx O
bx P
bx Q
bx R
bx S
bx T
bx U
bx V
bx W
bx X
bx Y
bx Z
bx [
bx \
bx ]
bx ^
bx _
bx `
bx a
bx b
bx c
bx d
bx e
bx f
bx g
bx h
bx i
bx j
bx k
bx l
bx m
bx n
bx o
bx p
bx q
bx r
bx s
bx t
bx u
bx v
bx w
bx x
bx y
bx z
bx {
bx |
bx }
bx ~
$end

#10000
1!
1"
1(

#20000
0!
0"
0#
b0 $
b0 %
0(
0)
b0 *
b0 +
b0 /
b0 0
b0 1
b0 2
b0 3
b0 4
b0 G
b0 H
b0 J
b0 K

#30000
1!
b0 !!
1"
b0 "!
b0 #!
b0 $!
b0 %!
b0 &
b0 &!
0'
b0 '!
1(
b0 (!
b0 )!
b0 *!
b0 +!
b0 ,
b0 ,!
0-
b0 .
b0 5
b0 6
b0 7
b0 8
b0 9
b0 :
b0 ;
b0 <
b0 =
b0 >
b0 ?
b0 @
b0 A
b0 B
b0 C
b0 D
b0 E
b0 F
b0 I
b0 L
b0 M
b0 N
b0 O
b0 P
b0 Q
b0 R
b0 S
b0 T
b0 U
b0 V
b0 W
b0 X
b0 Y
b0 Z
b0 [
b0 \
b0 ]
b0 ^
b0 _
b0 `
b0 a
b0 b
b0 c
b0 d
b0 e
b0 f
b0 g
b0 h
b0 i
b0 j
b0 k
b0 l
b0 m
b0 n
b0 o
b0 p
b0 q
b0 r
b0 s
b0 t
b0 u
b0 v
b0 w
b0 x
b0 y
b0 z
b0 {
b0 |
b0 }
b0 ~

#40000
0!
0"
0(

#50000
1!
1"
1(

#60000
0!
0"
0(

#70000
1!
1"
1(

#80000
0!
0"
1#
b111011011111100111000101 $
b100011001100011010101010 %
0(
1)
b111011011111100111000101 *
b100011001100011010101010 +
b11000101 /
b11111001 0
b11101101 1
b10101010 2
b11000110 3
b10001100 4
b11000101 G
b10101010 H
b11000101 J
b10101010 K
b1001111010010 L

#90000
1!
1"
b1001111010010 &
1(
b1 )!
b1001111010010 ,
b1 .
b11000101 5
b10101010 ;
b11111001 A
b11101101 B
b11000110 D
b10001100 E
b1001111010010 I
b10011110100100 L
b11000101 M
b11000110 N
b1 P
b11000101 Q
b11000110 R
b110101011110 S
b1 X
b11111001 \
b10101010 ]
b1 _
b11111001 `
b10101010 a
b1001011010 b
b1 f
b1 n
b1 v
b1 ~

#100000
0!
0"
b11001010000000101110110 $
b100100000110100111101 %
0(
b11001010000000101110110 *
b100100000110100111101 +
b1110110 /
b1 0
b1100101 1
b111101 2
b1101 3
b10010 4
b1110110 G
b111101 H
b1110110 J
b111101 K
b10111111110000 L

#110000
1!
1"
b1001011010000000000000000000001101010111100010111111110000 &
1(
b10 )!
b1001011010000000000000000000001101010111100010111111110000 ,
b10 .
b1110110 5
b11000101 6
b11111001 7
b111101 ;
b10101010 <
b11000110 =
b1 A
b1100101 B
b11101101 C
b1101 D
b10010 E
b10001100 F
b10111111110000 I
b100110000001110 L
b1110110 M
b1101 N
b110101011110 O
b10 P
b1110110 Q
b1101 R
b1001101011100 S
b11000101 T
b10001100 U
b10 X
b11000101 Y
b10001100 Z
b1101010111100 [
b1 \
b111101 ]
b1001011010 ^
b10 _
b1 `
b111101 a
b1010010111 b
b11111001 c
b11000110 d
b10 f
b11111001 g
b11000110 h
b110010110 i
b10 n
b11101101 r
b10101010 s
b10 v
b11101101 w
b10101010 x
b11001100010 y
b10 ~

#120000
0!
0"
b1001000000100100001101 $
b100000010110001110001101 %
0(
b1001000000100100001101 *
b100000010110001110001101 +
b1101 /
b1001 0
b100100 1
b10001101 2
b1100011 3
b10000001 4
b1101 G
b10001101 H
b1101 J
b10001101 K
b10101000011001 L

#130000
1!
b11101101 !!
1"
b11000110 "!
b10001001110 #!
b11001100010000000000000000000000001100101100000001010010111000110101011110000010011010111000010101000011001 &
1(
b11 )!
b11001100010000000000000000000000001100101100000001010010111000110101011110000010011010111000010101000011001 ,
b11 .
b1101 5
b1110110 6
b1 7
b11111001 8
b11101101 9
b10001101 ;
b111101 <
b1101 =
b11000110 >
b10001100 ?
b1001 A
b100100 B
b1100101 C
b1100011 D
b10000001 E
b10010 F
b10101000011001 I
b10010001000010 L
b1101 M
b1100011 N
b1001101011100 O
b11 P
b1101 Q
b1100011 R
b1100001100011 S
b1110110 T
b10010 U
b11000101 V
b1101010111100 W
b11 X
b1110110 Y
b10010 Z
b10001100001000 [
b1001 \
b10001101 ]
b1010010111 ^
b11 _
b1001 `
b10001101 a
b1111111010001100 b
b1 c
b1101 d
b110010110 e
b11 f
b1 g
b1101 h
b110100011 i
b11111001 j
b10001100 k
b11 n
b11111001 o
b10001100 p
b1100101100 q
b1100101 r
b111101 s
b10101010 t
b11001100010 u
b11 v
b1100101 w
b111101 x
b1111001110011 y
b11101101 z
b11000110 {
b11 ~

#140000
0!
0"
b0 $
b0 %
0(
b0 *
b0 +
b0 /
b0 0
b0 1
b0 2
b0 3
b0 4
b0 G
b0 H
b0 J
b0 K
b10101000011001 L

#150000
1!
b1100101 !!
1"
b1101 "!
b100101101111 #!
b11101101 $!
b10001100 %!
b100010011100001111001110011000000110010110000000001101000111111111010001100001000110000100000011000011000110010101000011001 &
1(
b100 )!
b11101101 *!
b10001100 +!
b100010011100001111001110011000000110010110000000001101000111111111010001100001000110000100000011000011000110010101000011001 ,
b100010011100 ,!
b100 .
b0 5
b1101 6
b1001 7
b1 8
b1100101 9
b11101101 :
b0 ;
b10001101 <
b1100011 =
b1101 >
b10010 ?
b10001100 @
b0 A
b0 B
b100100 C
b0 D
b0 E
b10000001 F
b0 M
b0 N
b1100001100011 O
b100 P
b0 Q
b0 R
b1101 T
b10000001 U
b1110110 V
b10001100001000 W
b100 X
b1101 Y
b10000001 Z
b1110010010101 [
b0 \
b0 ]
b1111111010001100 ^
b100 _
b0 `
b0 a
b1001 c
b1100011 d
b110100011 e
b100 f
b1001 g
b1100011 h
b10100011110 i
b1 j
b10010 k
b11111001 l
b1100101100 m
b100 n
b1 o
b10010 p
b1100111110 q
b100100 r
b10001101 s
b111101 t
b1111001110011 u
b100 v
b100100 w
b10001101 x
b111001000111 y
b1100101 z
b1101 {
b11000110 |
b10001001110 }
b100 ~

#160000
0!
0"
0(

#170000
1!
b100100 !!
1"
b1100011 "!
b1011101011011 #!
b1100101 $!
b10010 %!
b10001001110000001001011011110000111001000111000000110011111000000101000111101111111010001100000111001001010100011000011000110010101000011001 &
b11101101 &!
b10001100 '!
1(
b100010011100 (!
b101 )!
b1100101 *!
b10010 +!
b10001001110000001001011011110000111001000111000000110011111000000101000111101111111010001100000111001001010100011000011000110010101000011001 ,
b111110110110 ,!
b101 .
b0 6
b0 7
b1001 8
b100100 9
b1100101 :
b0 <
b0 =
b1100011 >
b10000001 ?
b10010 @
b0 C
b0 F
b101 P
b0 T
b0 U
b1101 V
b1110010010101 W
b101 X
b0 Y
b0 Z
b101 _
b0 c
b0 d
b10100011110 e
b101 f
b0 g
b0 h
b1001 j
b10000001 k
b1 l
b1100111110 m
b101 n
b1001 o
b10000001 p
b1111111011000111 q
b0 r
b0 s
b10001101 t
b111001000111 u
b101 v
b0 w
b0 x
b100100 z
b1100011 {
b1101 |
b100101101111 }
b101 ~

#180000
0!
0"
0(

#190000
1!
b0 !!
1"
b0 "!
b100100 $!
b10000001 %!
b11111011011000010111010110110000111001000111111111101100011100000101000111101111111010001100000111001001010100011000011000110010101000011001 &
b1100101 &!
b10010 '!
1(
b111110110110 (!
b110 )!
b100100 *!
b10000001 +!
b11111011011000010111010110110000111001000111111111101100011100000101000111101111111010001100000111001001010100011000011000110010101000011001 ,
b1111110111011010 ,!
b110 .
b0 8
b0 9
b100100 :
b0 >
b0 ?
b10000001 @
b110 P
b0 V
b110 X
b110 _
b110 f
b0 j
b0 k
b1001 l
b1111111011000111 m
b110 n
b0 o
b0 p
b0 t
b110 v
b0 z
b0 {
b1100011 |
b1011101011011 }
b110 ~

#200000
0!
0"
0(

#210000
1!
1"
b0 $!
b0 %!
b111111011101101000010111010110110000111001000111111111101100011100000101000111101111111010001100000111001001010100011000011000110010101000011001 &
b100100 &!
1'
b10000001 '!
1(
b1111110111011010 (!
b111 )!
b0 *!
b0 +!
b111111011101101000010111010110110000111001000111111111101100011100000101000111101111111010001100000111001001010100011000011000110010101000011001 ,
1-
b111 .
b0 :
b0 @
b111 P
b111 X
b111 _
b111 f
b0 l
b111 n
b111 v
b0 |
b111 ~

#220000
0!
0"
0(

#230000
1!
1"
b0 &!
b0 '!
1(
